2020/yosys_synth_experiments/synth_verilog_testbench/counter_with_reset_example.vcd
$date
	Fri Jul 17 13:20:08 2020
$end
$version
	Icarus Verilog
$end
$timescale
	1ps
$end
$scope module counter_with_reset_example_tb $end
$var wire 8 ! counter [7:0] $end
$var reg 1 " clock $end
$var reg 1 # reset $end
$scope module my_counter $end
$var wire 1 " clock $end
$var wire 1 # reset $end
$var wire 8 $ counter_SB_DFFSR_Q_D_SB_LUT4_O_I3 [7:0] $end
$var wire 4 % counter_SB_DFFSR_Q_D_SB_LUT4_O_I0 [3:0] $end
$var wire 1 & counter_SB_DFFSR_Q_D $end
$var wire 1 ' counter_SB_DFFSR_Q_7_D $end
$var wire 1 ( counter_SB_DFFSR_Q_6_D $end
$var wire 1 ) counter_SB_DFFSR_Q_5_D $end
$var wire 1 * counter_SB_DFFSR_Q_4_D $end
$var wire 1 + counter_SB_DFFSR_Q_3_D $end
$var wire 1 , counter_SB_DFFSR_Q_2_D $end
$var wire 1 - counter_SB_DFFSR_Q_1_D $end
$var wire 8 . counter [7:0] $end
$scope module counter_SB_CARRY_CI $end
$var wire 1 / CI $end
$var wire 1 0 CO $end
$var wire 1 1 I0 $end
$var wire 1 2 I1 $end
$upscope $end
$scope module counter_SB_CARRY_I1 $end
$var wire 1 3 CI $end
$var wire 1 4 CO $end
$var wire 1 5 I0 $end
$var wire 1 6 I1 $end
$upscope $end
$scope module counter_SB_CARRY_I1_1 $end
$var wire 1 7 CI $end
$var wire 1 8 CO $end
$var wire 1 9 I0 $end
$var wire 1 : I1 $end
$upscope $end
$scope module counter_SB_CARRY_I1_2 $end
$var wire 1 ; CI $end
$var wire 1 < CO $end
$var wire 1 = I0 $end
$var wire 1 > I1 $end
$upscope $end
$scope module counter_SB_CARRY_I1_3 $end
$var wire 1 ? CI $end
$var wire 1 @ CO $end
$var wire 1 A I0 $end
$var wire 1 B I1 $end
$upscope $end
$scope module counter_SB_CARRY_I1_4 $end
$var wire 1 C CI $end
$var wire 1 D CO $end
$var wire 1 E I0 $end
$var wire 1 F I1 $end
$upscope $end
$scope module counter_SB_DFFSR_Q $end
$var wire 1 " C $end
$var wire 1 # R $end
$var wire 1 & D $end
$var reg 1 G Q $end
$upscope $end
$scope module counter_SB_DFFSR_Q_1 $end
$var wire 1 " C $end
$var wire 1 # R $end
$var wire 1 - D $end
$var reg 1 H Q $end
$upscope $end
$scope module counter_SB_DFFSR_Q_1_D_SB_LUT4_O $end
$var wire 1 I I0 $end
$var wire 1 J I1 $end
$var wire 1 K I2 $end
$var wire 1 L I3 $end
$var wire 8 M s3 [7:0] $end
$var wire 4 N s2 [3:0] $end
$var wire 2 O s1 [1:0] $end
$var wire 1 - O $end
$upscope $end
$scope module counter_SB_DFFSR_Q_2 $end
$var wire 1 " C $end
$var wire 1 # R $end
$var wire 1 , D $end
$var reg 1 P Q $end
$upscope $end
$scope module counter_SB_DFFSR_Q_2_D_SB_LUT4_O $end
$var wire 1 Q I0 $end
$var wire 1 R I1 $end
$var wire 1 S I2 $end
$var wire 1 T I3 $end
$var wire 8 U s3 [7:0] $end
$var wire 4 V s2 [3:0] $end
$var wire 2 W s1 [1:0] $end
$var wire 1 , O $end
$upscope $end
$scope module counter_SB_DFFSR_Q_3 $end
$var wire 1 " C $end
$var wire 1 # R $end
$var wire 1 + D $end
$var reg 1 X Q $end
$upscope $end
$scope module counter_SB_DFFSR_Q_3_D_SB_LUT4_O $end
$var wire 1 Y I0 $end
$var wire 1 Z I1 $end
$var wire 1 [ I2 $end
$var wire 1 \ I3 $end
$var wire 8 ] s3 [7:0] $end
$var wire 4 ^ s2 [3:0] $end
$var wire 2 _ s1 [1:0] $end
$var wire 1 + O $end
$upscope $end
$scope module counter_SB_DFFSR_Q_4 $end
$var wire 1 " C $end
$var wire 1 # R $end
$var wire 1 * D $end
$var reg 1 ` Q $end
$upscope $end
$scope module counter_SB_DFFSR_Q_4_D_SB_LUT4_O $end
$var wire 1 a I0 $end
$var wire 1 b I1 $end
$var wire 1 c I2 $end
$var wire 1 d I3 $end
$var wire 8 e s3 [7:0] $end
$var wire 4 f s2 [3:0] $end
$var wire 2 g s1 [1:0] $end
$var wire 1 * O $end
$upscope $end
$scope module counter_SB_DFFSR_Q_5 $end
$var wire 1 " C $end
$var wire 1 # R $end
$var wire 1 ) D $end
$var reg 1 h Q $end
$upscope $end
$scope module counter_SB_DFFSR_Q_5_D_SB_LUT4_O $end
$var wire 1 i I0 $end
$var wire 1 j I1 $end
$var wire 1 k I2 $end
$var wire 1 l I3 $end
$var wire 8 m s3 [7:0] $end
$var wire 4 n s2 [3:0] $end
$var wire 2 o s1 [1:0] $end
$var wire 1 ) O $end
$upscope $end
$scope module counter_SB_DFFSR_Q_6 $end
$var wire 1 " C $end
$var wire 1 # R $end
$var wire 1 ( D $end
$var reg 1 p Q $end
$upscope $end
$scope module counter_SB_DFFSR_Q_6_D_SB_LUT4_O $end
$var wire 1 q I0 $end
$var wire 1 r I1 $end
$var wire 1 s I2 $end
$var wire 1 t I3 $end
$var wire 8 u s3 [7:0] $end
$var wire 4 v s2 [3:0] $end
$var wire 2 w s1 [1:0] $end
$var wire 1 ( O $end
$upscope $end
$scope module counter_SB_DFFSR_Q_7 $end
$var wire 1 " C $end
$var wire 1 # R $end
$var wire 1 ' D $end
$var reg 1 x Q $end
$upscope $end
$scope module counter_SB_DFFSR_Q_7_D_SB_LUT4_O $end
$var wire 1 y I0 $end
$var wire 1 z I1 $end
$var wire 1 { I2 $end
$var wire 1 | I3 $end
$var wire 1 ' O $end
$var wire 8 } s3 [7:0] $end
$var wire 4 ~ s2 [3:0] $end
$var wire 2 !" s1 [1:0] $end
$upscope $end
$scope module counter_SB_DFFSR_Q_D_SB_LUT4_O $end
$var wire 1 "" I0 $end
$var wire 1 #" I1 $end
$var wire 1 $" I2 $end
$var wire 1 %" I3 $end
$var wire 8 &" s3 [7:0] $end
$var wire 4 '" s2 [3:0] $end
$var wire 2 (" s1 [1:0] $end
$var wire 1 & O $end
$upscope $end
$scope module counter_SB_LUT4_I0 $end
$var wire 1 )" I0 $end
$var wire 1 *" I1 $end
$var wire 1 +" I2 $end
$var wire 1 ," I3 $end
$var wire 8 -" s3 [7:0] $end
$var wire 4 ." s2 [3:0] $end
$var wire 2 /" s1 [1:0] $end
$var wire 1 0" O $end
$upscope $end
$scope module counter_SB_LUT4_I0_1 $end
$var wire 1 1" I0 $end
$var wire 1 2" I1 $end
$var wire 1 3" I2 $end
$var wire 1 4" I3 $end
$var wire 8 5" s3 [7:0] $end
$var wire 4 6" s2 [3:0] $end
$var wire 2 7" s1 [1:0] $end
$var wire 1 8" O $end
$upscope $end
$upscope $end
$upscope $end
$enddefinitions $end
#0
$dumpvars
08"
b0 7"
b0 6"
b0 5"
04"
03"
02"
01"
00"
b0 /"
b0 ."
b0 -"
0,"
0+"
0*"
0)"
b0 ("
b0 '"
b1110000 &"
0%"
0$"
0#"
0""
b11 !"
b1111 ~
b111111 }
0|
0{
0z
0y
0x
b0 w
b0 v
b1110000 u
0t
0s
0r
0q
0p
b0 o
b0 n
b1110000 m
0l
0k
0j
0i
0h
b0 g
b0 f
b1110000 e
0d
0c
0b
0a
0`
b0 _
b0 ^
b1110000 ]
0\
0[
0Z
0Y
0X
b0 W
b0 V
b1110000 U
0T
0S
0R
0Q
0P
b0 O
b0 N
b1110000 M
0L
0K
0J
0I
0H
0G
0F
0E
0D
0C
0B
0A
0@
0?
0>
0=
0<
0;
0:
09
08
07
06
05
04
03
02
01
00
0/
b0 .
0-
0,
0+
0*
0)
0(
1'
0&
b0 %
b0 $
1#
0"
b0 !
$end
#500000
1"
#1000000
0"
#1500000
1"
#2000000
0"
0#
#2500000
1(
0'
b0 !"
b11 w
b0 ~
b111 v
b0 }
b111 u
1|
1)"
b10 $
b1000 %
1t
1/
b1 !
b1 .
1x
1"
#3000000
0"
#3500000
1'
b11 !"
1(
b1111 ~
b11 w
b111111 }
b1110000 u
b111 v
0|
0)"
b0 $
0t
0/
1*"
b100 %
1s
12
0x
b10 !
b10 .
1p
1"
#4000000
0"
#4500000
1)
b11 o
0(
0'
b111 n
b0 !"
b0 w
b111 m
b0 ~
b0 v
1l
1C
10
b0 }
b111 u
1|
1)"
b110 $
b1100 %
1t
1/
b11 !
b11 .
1x
1"
#5000000
0"
#5500000
0*
b0 g
b0 f
1'
b11 !"
0(
1)
b1110000 e
b1110000 m
0d
0?
b1111 ~
0l
0C
b0 w
b11 o
0D
00
b111111 }
b1110000 u
b0 v
b111 n
0|
0)"
b0 $
0t
0/
0*"
b0 %
0s
02
1+"
1k
1F
0x
0p
b100 !
b100 .
1h
1"
#6000000
0"
#6500000
1(
0'
b0 !"
b11 w
b0 ~
b111 v
b0 }
b111 u
1|
1)"
b10 $
b1000 %
1t
1/
b101 !
b101 .
1x
1"
#7000000
0"
#7500000
1'
b11 !"
1(
b1111 ~
b11 w
b111111 }
b1110000 u
b111 v
0|
0)"
b0 $
0t
0/
1*"
b100 %
1s
12
0x
b110 !
b110 .
1p
1"
#8000000
0"
#8500000
1*
b11 g
0)
b111 f
b0 o
0(
b111 e
0'
b0 n
1d
1?
b0 !"
b0 w
1D
b111 m
b0 ~
b0 v
1l
1C
10
b0 }
b111 u
1|
1)"
b1110 $
b1100 %
1t
1/
b111 !
b111 .
1x
1"
#9000000
0"
#9500000
0+
b0 _
1""
1z
1q
1i
1a
1Y
1Q
1I
10"
b0 ^
1'
b11 !"
0(
0)
b1110000 e
b1 /"
1*
b1110000 ]
b1110000 m
0d
0?
0\
0;
b1111 ~
0l
0C
b0 w
b0 o
0D
b1 ."
b11 g
0@
00
b111111 }
b1110000 u
b0 v
b0 n
b1 -"
b111 f
0|
0)"
b0 $
0t
0/
0*"
b1 %
0s
02
0+"
0k
0F
1,"
1c
1B
0x
0p
0h
b1000 !
b1000 .
1`
1"
#10000000
0"
#10500000
1(
0'
b0 !"
b11 w
b0 ~
b111 v
0""
0z
0q
0i
0a
0Y
0Q
0I
b0 }
00"
b111 u
1|
1)"
b10 $
b1000 %
1t
1/
b1001 !
b1001 .
1x
1"
#11000000
0"
#11500000
1'
b11 !"
1(
b1111 ~
b11 w
0""
0z
0q
0i
0a
0Y
0Q
0I
b111111 }
00"
b1110000 u
b0 /"
b111 v
0|
0)"
b0 $
0t
0/
1*"
b100 %
1s
12
0x
b1010 !
b1010 .
1p
1"
#12000000
0"
#12500000
1)
b11 o
0(
0'
b111 n
b0 !"
b0 w
b111 m
b0 ~
b0 v
1l
1C
10
b0 }
b111 u
1|
1)"
b110 $
b1100 %
1t
1/
b1011 !
b1011 .
1x
1"
#13000000
0"
#13500000
0+
b0 _
1*
b0 ^
b11 g
b1110000 ]
b111 f
0\
0;
1'
0@
b11 !"
0(
1)
b1110000 e
b1110000 m
0""
0z
0q
0i
0a
0Y
0Q
0I
0d
0?
b1111 ~
0l
0C
00"
b0 w
b11 o
0D
00
b111111 }
b1110000 u
b0 /"
b0 v
b0 ."
b111 n
0|
0)"
b0 $
0t
0/
0*"
b0 %
0s
02
1+"
1k
1F
0x
0p
b1100 !
b1100 .
1h
1"
#14000000
0"
#14500000
1(
0'
b0 !"
b11 w
b0 ~
b111 v
b0 }
b111 u
1|
1)"
b10 $
b1000 %
1t
1/
b1101 !
b1101 .
1x
1"
#15000000
0"
#15500000
1'
b11 !"
1(
b1111 ~
b11 w
b111111 }
b1110000 u
b111 v
0|
0)"
b0 $
0t
0/
1*"
b100 %
1s
12
0x
b1110 !
b1110 .
1p
1"
#16000000
0"
#16500000
1+
b11 _
0*
b111 ^
b0 g
0)
b111 ]
b0 f
1\
1;
b0 o
1@
0(
b111 e
0'
b0 n
1d
1?
b0 !"
b0 w
1D
b111 m
b0 ~
b0 v
1l
1C
10
b0 }
b111 u
1|
1)"
b11110 $
b1100 %
1t
1/
b1111 !
b1111 .
1x
1"
#17000000
0"
#17500000
0,
b0 W
b0 V
1'
0""
0z
0q
0i
0a
0Y
0Q
0I
b11 !"
0(
00"
0)
b1110000 e
0*
b1110000 ]
1+
b1110000 U
b1110000 m
0d
0?
0\
0;
0T
07
b1111 ~
0l
0C
b0 w
b0 /"
b0 o
0D
b0 g
0@
b11 _
0<
00
b111111 }
b1110000 u
b0 v
b0 ."
b0 n
b0 -"
b0 f
b111 ^
0|
0)"
b0 $
0t
0/
0*"
b0 %
0s
02
0+"
0k
0F
0,"
0c
0B
11"
1[
1>
0x
0p
0h
0`
b10000 !
b10000 .
1X
1"
#18000000
0"
#18500000
1(
0'
b0 !"
b11 w
b0 ~
b111 v
b0 }
b111 u
1|
1)"
b10 $
b1000 %
1t
1/
b10001 !
b10001 .
1x
1"
#19000000
0"
#19500000
1'
b11 !"
1(
b1111 ~
b11 w
b111111 }
b1110000 u
b111 v
0|
0)"
b0 $
0t
0/
1*"
b100 %
1s
12
0x
b10010 !
b10010 .
1p
1"
#20000000
0"
#20500000
1)
b11 o
0(
0'
b111 n
b0 !"
b0 w
b111 m
b0 ~
b0 v
1l
1C
10
b0 }
b111 u
1|
1)"
b110 $
b1100 %
1t
1/
b10011 !
b10011 .
1x
1"
#21000000
0"
#21500000
0*
b0 g
b0 f
1'
b11 !"
0(
1)
b1110000 e
b1110000 m
0d
0?
b1111 ~
0l
0C
b0 w
b11 o
0D
00
b111111 }
b1110000 u
b0 v
b111 n
0|
0)"
b0 $
0t
0/
0*"
b0 %
0s
02
1+"
1k
1F
0x
0p
b10100 !
b10100 .
1h
1"
#22000000
0"
#22500000
1(
0'
b0 !"
b11 w
b0 ~
b111 v
b0 }
b111 u
1|
1)"
b10 $
b1000 %
1t
1/
b10101 !
b10101 .
1x
1"
#23000000
0"
#23500000
1'
b11 !"
1(
b1111 ~
b11 w
b111111 }
b1110000 u
b111 v
0|
0)"
b0 $
0t
0/
1*"
b100 %
1s
12
0x
b10110 !
b10110 .
1p
1"
#24000000
0"
#24500000
1*
b11 g
0)
b111 f
b0 o
0(
b111 e
0'
b0 n
1d
1?
b0 !"
b0 w
1D
b111 m
b0 ~
b0 v
1l
1C
10
b0 }
b111 u
1|
1)"
b1110 $
b1100 %
1t
1/
b10111 !
b10111 .
1x
1"
#25000000
0"
#25500000
0,
b0 W
1+
b0 V
b11 _
1""
1z
1q
1i
1a
1Y
1Q
1I
b1110000 U
10"
b111 ^
0T
07
1'
0<
b11 !"
0(
0)
b1110000 e
b1 /"
1*
b1110000 ]
b1110000 m
0d
0?
0\
0;
b1111 ~
0l
0C
b0 w
b0 o
0D
b1 ."
b11 g
0@
00
b111111 }
b1110000 u
b0 v
b0 n
b1 -"
b111 f
0|
0)"
b0 $
0t
0/
0*"
b1 %
0s
02
0+"
0k
0F
1,"
1c
1B
0x
0p
0h
b11000 !
b11000 .
1`
1"
#26000000
0"
#26500000
1(
0'
b0 !"
b11 w
b0 ~
b111 v
0""
0z
0q
0i
0a
0Y
0Q
0I
b0 }
00"
b111 u
1|
1)"
b10 $
b1000 %
1t
1/
b11001 !
b11001 .
1x
1"
#27000000
0"
#27500000
1'
b11 !"
1(
b1111 ~
b11 w
0""
0z
0q
0i
0a
0Y
0Q
0I
b111111 }
00"
b1110000 u
b0 /"
b111 v
0|
0)"
b0 $
0t
0/
1*"
b100 %
1s
12
0x
b11010 !
b11010 .
1p
1"
#28000000
0"
#28500000
1)
b11 o
0(
0'
b111 n
b0 !"
b0 w
b111 m
b0 ~
b0 v
1l
1C
10
b0 }
b111 u
1|
1)"
b110 $
b1100 %
1t
1/
b11011 !
b11011 .
1x
1"
#29000000
0"
#29500000
0,
b0 W
1+
b0 V
b11 _
1*
b1110000 U
b111 ^
0T
07
b11 g
0<
b1110000 ]
b111 f
0\
0;
1'
0@
b11 !"
0(
1)
b1110000 e
b1110000 m
0""
0z
0q
0i
0a
0Y
0Q
0I
0d
0?
b1111 ~
0l
0C
00"
b0 w
b11 o
0D
00
b111111 }
b1110000 u
b0 /"
b0 v
b0 ."
b111 n
0|
0)"
b0 $
0t
0/
0*"
b0 %
0s
02
1+"
1k
1F
0x
0p
b11100 !
b11100 .
1h
1"
#30000000
0"
#30500000
1(
0'
b0 !"
b11 w
b0 ~
b111 v
b0 }
b111 u
1|
1)"
b10 $
b1000 %
1t
1/
b11101 !
b11101 .
1x
1"
#31000000
0"
#31500000
1'
b11 !"
1(
b1111 ~
b11 w
b111111 }
b1110000 u
b111 v
0|
0)"
b0 $
0t
0/
1*"
b100 %
1s
12
0x
b11110 !
b11110 .
1p
1"
#32000000
0"
#32500000
1,
b11 W
0+
b111 V
b0 _
0*
b111 U
b0 ^
1T
17
b0 g
1<
0)
b111 ]
b0 f
1\
1;
b0 o
1@
0(
b111 e
0'
b0 n
1d
1?
b0 !"
b0 w
1D
b111 m
b0 ~
b0 v
1l
1C
10
b0 }
b111 u
1|
1)"
b111110 $
b1100 %
1t
1/
b11111 !
b11111 .
1x
1"
#33000000
0"
#33500000
0-
b0 O
b0 N
1'
0""
0z
0q
0i
0a
0Y
0Q
0I
b11 !"
0(
00"
0)
b1110000 e
0*
b1110000 ]
0+
b1110000 U
1,
b1110000 M
b1110000 m
0d
0?
0\
0;
0T
07
0L
03
b1111 ~
0l
0C
b0 w
b0 /"
b0 o
0D
b0 g
0@
b0 _
0<
b11 W
08
00
b111111 }
b1110000 u
b0 v
b0 ."
b0 n
b0 -"
b0 f
b0 ^
b111 V
0|
0)"
b0 $
0t
0/
0*"
b0 %
0s
02
0+"
0k
0F
0,"
0c
0B
01"
0[
0>
12"
1S
1:
0x
0p
0h
0`
0X
b100000 !
b100000 .
1P
1"
#34000000
0"
#34500000
1(
0'
b0 !"
b11 w
b0 ~
b111 v
b0 }
b111 u
1|
1)"
b10 $
b1000 %
1t
1/
b100001 !
b100001 .
1x
1"
#35000000
0"
#35500000
1'
b11 !"
1(
b1111 ~
b11 w
b111111 }
b1110000 u
b111 v
0|
0)"
b0 $
0t
0/
1*"
b100 %
1s
12
0x
b100010 !
b100010 .
1p
1"
#36000000
0"
#36500000
1)
b11 o
0(
0'
b111 n
b0 !"
b0 w
b111 m
b0 ~
b0 v
1l
1C
10
b0 }
b111 u
1|
1)"
b110 $
b1100 %
1t
1/
b100011 !
b100011 .
1x
1"
#37000000
0"
#37500000
0*
b0 g
b0 f
1'
b11 !"
0(
1)
b1110000 e
b1110000 m
0d
0?
b1111 ~
0l
0C
b0 w
b11 o
0D
00
b111111 }
b1110000 u
b0 v
b111 n
0|
0)"
b0 $
0t
0/
0*"
b0 %
0s
02
1+"
1k
1F
0x
0p
b100100 !
b100100 .
1h
1"
#38000000
0"
#38500000
1(
0'
b0 !"
b11 w
b0 ~
b111 v
b0 }
b111 u
1|
1)"
b10 $
b1000 %
1t
1/
b100101 !
b100101 .
1x
1"
#39000000
0"
#39500000
1'
b11 !"
1(
b1111 ~
b11 w
b111111 }
b1110000 u
b111 v
0|
0)"
b0 $
0t
0/
1*"
b100 %
1s
12
0x
b100110 !
b100110 .
1p
1"
#40000000
0"
#40500000
1*
b11 g
0)
b111 f
b0 o
0(
b111 e
0'
b0 n
1d
1?
b0 !"
b0 w
1D
b111 m
b0 ~
b0 v
1l
1C
10
b0 }
b111 u
1|
1)"
b1110 $
b1100 %
1t
1/
b100111 !
b100111 .
1x
1"
#41000000
0"
#41500000
0+
b0 _
1""
1z
1q
1i
1a
1Y
1Q
1I
10"
b0 ^
1'
b11 !"
0(
0)
b1110000 e
b1 /"
1*
b1110000 ]
b1110000 m
0d
0?
0\
0;
b1111 ~
0l
0C
b0 w
b0 o
0D
b1 ."
b11 g
0@
00
b111111 }
b1110000 u
b0 v
b0 n
b1 -"
b111 f
0|
0)"
b0 $
0t
0/
0*"
b1 %
0s
02
0+"
0k
0F
1,"
1c
1B
0x
0p
0h
b101000 !
b101000 .
1`
1"
#42000000
0"
#42500000
1(
0'
b0 !"
b11 w
b0 ~
b111 v
0""
0z
0q
0i
0a
0Y
0Q
0I
b0 }
00"
b111 u
1|
1)"
b10 $
b1000 %
1t
1/
b101001 !
b101001 .
1x
1"
#43000000
0"
#43500000
1'
b11 !"
1(
b1111 ~
b11 w
0""
0z
0q
0i
0a
0Y
0Q
0I
b111111 }
00"
b1110000 u
b0 /"
b111 v
0|
0)"
b0 $
0t
0/
1*"
b100 %
1s
12
0x
b101010 !
b101010 .
1p
1"
#44000000
0"
#44500000
1)
b11 o
0(
0'
b111 n
b0 !"
b0 w
b111 m
b0 ~
b0 v
1l
1C
10
b0 }
b111 u
1|
1)"
b110 $
b1100 %
1t
1/
b101011 !
b101011 .
1x
1"
#45000000
0"
#45500000
0+
b0 _
1*
b0 ^
b11 g
b1110000 ]
b111 f
0\
0;
1'
0@
b11 !"
0(
1)
b1110000 e
b1110000 m
0""
0z
0q
0i
0a
0Y
0Q
0I
0d
0?
b1111 ~
0l
0C
00"
b0 w
b11 o
0D
00
b111111 }
b1110000 u
b0 /"
b0 v
b0 ."
b111 n
0|
0)"
b0 $
0t
0/
0*"
b0 %
0s
02
1+"
1k
1F
0x
0p
b101100 !
b101100 .
1h
1"
#46000000
0"
#46500000
1(
0'
b0 !"
b11 w
b0 ~
b111 v
b0 }
b111 u
1|
1)"
b10 $
b1000 %
1t
1/
b101101 !
b101101 .
1x
1"
#47000000
0"
#47500000
1'
b11 !"
1(
b1111 ~
b11 w
b111111 }
b1110000 u
b111 v
0|
0)"
b0 $
0t
0/
1*"
b100 %
1s
12
0x
b101110 !
b101110 .
1p
1"
#48000000
0"
#48500000
1+
b11 _
0*
b111 ^
b0 g
0)
b111 ]
b0 f
1\
1;
b0 o
1@
0(
b111 e
0'
b0 n
1d
1?
b0 !"
b0 w
1D
b111 m
b0 ~
b0 v
1l
1C
10
b0 }
b111 u
1|
1)"
b11110 $
b1100 %
1t
1/
b101111 !
b101111 .
1x
1"
#49000000
0"
#49500000
0-
b0 O
1,
b0 N
b11 W
b1110000 M
b111 V
0L
03
1'
0""
0z
0q
0i
0a
0Y
0Q
0I
08
b11 !"
0(
00"
0)
b1110000 e
0*
b1110000 ]
1+
b1110000 U
b1110000 m
0d
0?
0\
0;
0T
07
b1111 ~
0l
0C
b0 w
b0 /"
b0 o
0D
b0 g
0@
b11 _
0<
00
b111111 }
b1110000 u
b0 v
b0 ."
b0 n
b0 -"
b0 f
b111 ^
0|
0)"
b0 $
0t
0/
0*"
b0 %
0s
02
0+"
0k
0F
0,"
0c
0B
11"
1[
1>
0x
0p
0h
0`
b110000 !
b110000 .
1X
1"
#50000000
0"
#50500000
1(
0'
b0 !"
b11 w
b0 ~
b111 v
b0 }
b111 u
1|
1)"
b10 $
b1000 %
1t
1/
b110001 !
b110001 .
1x
1"
#51000000
0"
#51500000
1'
b11 !"
1(
b1111 ~
b11 w
b111111 }
b1110000 u
b111 v
0|
0)"
b0 $
0t
0/
1*"
b100 %
1s
12
0x
b110010 !
b110010 .
1p
1"
#52000000
0"
#52500000
1)
b11 o
0(
0'
b111 n
b0 !"
b0 w
b111 m
b0 ~
b0 v
1l
1C
10
b0 }
b111 u
1|
1)"
b110 $
b1100 %
1t
1/
b110011 !
b110011 .
1x
1"
#53000000
0"
#53500000
0*
b0 g
b0 f
1'
b11 !"
0(
1)
b1110000 e
b1110000 m
0d
0?
b1111 ~
0l
0C
b0 w
b11 o
0D
00
b111111 }
b1110000 u
b0 v
b111 n
0|
0)"
b0 $
0t
0/
0*"
b0 %
0s
02
1+"
1k
1F
0x
0p
b110100 !
b110100 .
1h
1"
#54000000
0"
#54500000
1(
0'
b0 !"
b11 w
b0 ~
b111 v
b0 }
b111 u
1|
1)"
b10 $
b1000 %
1t
1/
b110101 !
b110101 .
1x
1"
#55000000
0"
#55500000
1'
b11 !"
1(
b1111 ~
b11 w
b111111 }
b1110000 u
b111 v
0|
0)"
b0 $
0t
0/
1*"
b100 %
1s
12
0x
b110110 !
b110110 .
1p
1"
#56000000
0"
#56500000
1*
b11 g
0)
b111 f
b0 o
0(
b111 e
0'
b0 n
1d
1?
b0 !"
b0 w
1D
b111 m
b0 ~
b0 v
1l
1C
10
b0 }
b111 u
1|
1)"
b1110 $
b1100 %
1t
1/
b110111 !
b110111 .
1x
1"
#57000000
0"
#57500000
0-
b0 O
1,
b0 N
b11 W
1+
b1110000 M
b111 V
0L
03
b11 _
08
1""
1z
1q
1i
1a
1Y
1Q
1I
b1110000 U
10"
b111 ^
0T
07
1'
0<
b11 !"
0(
0)
b1110000 e
b1 /"
1*
b1110000 ]
b1110000 m
0d
0?
0\
0;
b1111 ~
0l
0C
b0 w
b0 o
0D
b1 ."
b11 g
0@
00
b111111 }
b1110000 u
b0 v
b0 n
b1 -"
b111 f
0|
0)"
b0 $
0t
0/
0*"
b1 %
0s
02
0+"
0k
0F
1,"
1c
1B
0x
0p
0h
b111000 !
b111000 .
1`
1"
#58000000
0"
#58500000
1(
0'
b0 !"
b11 w
b0 ~
b111 v
0""
0z
0q
0i
0a
0Y
0Q
0I
b0 }
00"
b111 u
1|
1)"
b10 $
b1000 %
1t
1/
b111001 !
b111001 .
1x
1"
#59000000
0"
#59500000
1'
b11 !"
1(
b1111 ~
b11 w
0""
0z
0q
0i
0a
0Y
0Q
0I
b111111 }
00"
b1110000 u
b0 /"
b111 v
0|
0)"
b0 $
0t
0/
1*"
b100 %
1s
12
0x
b111010 !
b111010 .
1p
1"
#60000000
0"
#60500000
1)
b11 o
0(
0'
b111 n
b0 !"
b0 w
b111 m
b0 ~
b0 v
1l
1C
10
b0 }
b111 u
1|
1)"
b110 $
b1100 %
1t
1/
b111011 !
b111011 .
1x
1"
#61000000
0"
#61500000
0-
b0 O
1,
b0 N
b11 W
1+
b1110000 M
b111 V
0L
03
b11 _
08
1*
b1110000 U
b111 ^
0T
07
b11 g
0<
b1110000 ]
b111 f
0\
0;
1'
0@
b11 !"
0(
1)
b1110000 e
b1110000 m
0""
0z
0q
0i
0a
0Y
0Q
0I
0d
0?
b1111 ~
0l
0C
00"
b0 w
b11 o
0D
00
b111111 }
b1110000 u
b0 /"
b0 v
b0 ."
b111 n
0|
0)"
b0 $
0t
0/
0*"
b0 %
0s
02
1+"
1k
1F
0x
0p
b111100 !
b111100 .
1h
1"
#62000000
0"
#62500000
1(
0'
b0 !"
b11 w
b0 ~
b111 v
b0 }
b111 u
1|
1)"
b10 $
b1000 %
1t
1/
b111101 !
b111101 .
1x
1"
#63000000
0"
#63500000
1'
b11 !"
1(
b1111 ~
b11 w
b111111 }
b1110000 u
b111 v
0|
0)"
b0 $
0t
0/
1*"
b100 %
1s
12
0x
b111110 !
b111110 .
1p
1"
#64000000
0"
#64500000
1-
b11 O
0,
b111 N
b0 W
0+
b111 M
b0 V
1L
13
b0 _
18
0*
b111 U
b0 ^
1T
17
b0 g
1<
0)
b111 ]
b0 f
1\
1;
b0 o
1@
0(
b111 e
0'
b0 n
1d
1?
b0 !"
b0 w
1D
b111 m
b0 ~
b0 v
1l
1C
10
b0 }
b111 u
1|
1)"
b1111110 $
b1100 %
1t
1/
b111111 !
b111111 .
1x
1"
#65000000
0"
#65500000
0&
b0 ("
b0 '"
1'
0""
0z
0q
0i
0a
0Y
0Q
0I
b11 !"
0(
00"
0)
b1110000 e
0*
b1110000 ]
0+
b1110000 U
0,
b1110000 M
1-
b1110000 &"
b1110000 m
0d
0?
0\
0;
0T
07
0L
03
0%"
b1111 ~
0l
0C
b0 w
b0 /"
b0 o
0D
b0 g
0@
b0 _
0<
b0 W
08
b11 O
04
00
b111111 }
b1110000 u
b0 v
b0 ."
b0 n
b0 -"
b0 f
b0 ^
b0 V
b111 N
0|
0)"
b0 $
0t
0/
0*"
b0 %
0s
02
0+"
0k
0F
0,"
0c
0B
01"
0[
0>
02"
0S
0:
13"
1K
16
0x
0p
0h
0`
0X
0P
b1000000 !
b1000000 .
1H
1"
#66000000
0"
#66500000
1(
0'
b0 !"
b11 w
b0 ~
b111 v
b0 }
b111 u
1|
1)"
b10 $
b1000 %
1t
1/
b1000001 !
b1000001 .
1x
1"
#67000000
0"
#67500000
1'
b11 !"
1(
b1111 ~
b11 w
b111111 }
b1110000 u
b111 v
0|
0)"
b0 $
0t
0/
1*"
b100 %
1s
12
0x
b1000010 !
b1000010 .
1p
1"
#68000000
0"
#68500000
1)
b11 o
0(
0'
b111 n
b0 !"
b0 w
b111 m
b0 ~
b0 v
1l
1C
10
b0 }
b111 u
1|
1)"
b110 $
b1100 %
1t
1/
b1000011 !
b1000011 .
1x
1"
#69000000
0"
#69500000
0*
b0 g
b0 f
1'
b11 !"
0(
1)
b1110000 e
b1110000 m
0d
0?
b1111 ~
0l
0C
b0 w
b11 o
0D
00
b111111 }
b1110000 u
b0 v
b111 n
0|
0)"
b0 $
0t
0/
0*"
b0 %
0s
02
1+"
1k
1F
0x
0p
b1000100 !
b1000100 .
1h
1"
#70000000
0"
#70500000
1(
0'
b0 !"
b11 w
b0 ~
b111 v
b0 }
b111 u
1|
1)"
b10 $
b1000 %
1t
1/
b1000101 !
b1000101 .
1x
1"
#71000000
0"
#71500000
1'
b11 !"
1(
b1111 ~
b11 w
b111111 }
b1110000 u
b111 v
0|
0)"
b0 $
0t
0/
1*"
b100 %
1s
12
0x
b1000110 !
b1000110 .
1p
1"
#72000000
0"
#72500000
1*
b11 g
0)
b111 f
b0 o
0(
b111 e
0'
b0 n
1d
1?
b0 !"
b0 w
1D
b111 m
b0 ~
b0 v
1l
1C
10
b0 }
b111 u
1|
1)"
b1110 $
b1100 %
1t
1/
b1000111 !
b1000111 .
1x
1"
#73000000
0"
